^C:\USERS\USER\DOCUMENTS\GIT REPOSITORIES\16.1\16.1\DEBUG\16.1.OBJ
C:\USERS\USER\DOCUMENTS\GIT REPOSITORIES\16.1\16.1\DEBUG\16.1.EXE
C:\USERS\USER\DOCUMENTS\GIT REPOSITORIES\16.1\16.1\DEBUG\16.1.ILK
C:\USERS\USER\DOCUMENTS\GIT REPOSITORIES\16.1\16.1\DEBUG\16.1.PDB
