^C:\USERS\USER\DOCUMENTS\GIT REPOSITORIES\18.6\CONSOLEAPPLICATION1\CONSOLEAPPLICATION1.CPP
C:\USERS\USER\DOCUMENTS\GIT REPOSITORIES\18.6\CONSOLEAPPLICATION1\DEBUG\VC142.PDB
C:\USERS\USER\DOCUMENTS\GIT REPOSITORIES\18.6\CONSOLEAPPLICATION1\DEBUG\VC142.IDB
C:\USERS\USER\DOCUMENTS\GIT REPOSITORIES\18.6\CONSOLEAPPLICATION1\DEBUG\CONSOLEAPPLICATION1.OBJ
