^C:\USERS\USER\DOCUMENTS\GIT REPOSITORIES\HELPERS\CONSOLEAPPLICATION1\DEBUG\CONSOLEAPPLICATION1.OBJ|C:\USERS\USER\DOCUMENTS\GIT REPOSITORIES\HELPERS\CONSOLEAPPLICATION1\DEBUG\HELPERS.OBJ|C:\USERS\USER\DOCUMENTS\GIT REPOSITORIES\HELPERS\CONSOLEAPPLICATION1\DEBUG\MAIN.OBJ
/OUT:"C:\USERS\USER\DOCUMENTS\GIT REPOSITORIES\HELPERS\CONSOLEAPPLICATION1\DEBUG\CONSOLEAPPLICATION1.EXE" /INCREMENTAL /NOLOGO KERNEL32.LIB USER32.LIB GDI32.LIB WINSPOOL.LIB COMDLG32.LIB ADVAPI32.LIB SHELL32.LIB OLE32.LIB OLEAUT32.LIB UUID.LIB ODBC32.LIB ODBCCP32.LIB /MANIFEST /MANIFESTUAC:"level='asInvoker' uiAccess='false'" /manifest:embed /DEBUG:FASTLINK /PDB:"C:\USERS\USER\DOCUMENTS\GIT REPOSITORIES\HELPERS\CONSOLEAPPLICATION1\DEBUG\CONSOLEAPPLICATION1.PDB" /SUBSYSTEM:CONSOLE /TLBID:1 /DYNAMICBASE /NXCOMPAT /IMPLIB:"C:\USERS\USER\DOCUMENTS\GIT REPOSITORIES\HELPERS\CONSOLEAPPLICATION1\DEBUG\CONSOLEAPPLICATION1.LIB" /MACHINE:X86 DEBUG\CONSOLEAPPLICATION1.OBJ
DEBUG\HELPERS.OBJ
DEBUG\MAIN.OBJ
